<?xml version="1.0" encoding="UTF-8" standalone="no"?>
<!-- Created with Inkscape (http://www.inkscape.org/) -->

<svg
   xmlns:dc="http://purl.org/dc/elements/1.1/"
   xmlns:cc="http://creativecommons.org/ns#"
   xmlns:rdf="http://www.w3.org/1999/02/22-rdf-syntax-ns#"
   xmlns:svg="http://www.w3.org/2000/svg"
   xmlns="http://www.w3.org/2000/svg"
   xmlns:sodipodi="http://sodipodi.sourceforge.net/DTD/sodipodi-0.dtd"
   xmlns:inkscape="http://www.inkscape.org/namespaces/inkscape"
   width="19.174797mm"
   height="17.699793mm"
   viewBox="0 0 19.174797 17.699792"
   version="1.1"
   id="svg8"
   inkscape:version="0.92.1 r15371"
   sodipodi:docname="squared.svg">
  <defs
     id="defs2">
    <filter
       style="color-interpolation-filters:sRGB"
       inkscape:label="Colorize"
       id="filter32">
      <feComposite
         in2="SourceGraphic"
         operator="arithmetic"
         k1="4.9"
         k2="5.3"
         result="composite1"
         id="feComposite18"
         k3="0"
         k4="0" />
      <feColorMatrix
         in="composite1"
         values="1"
         type="saturate"
         result="colormatrix1"
         id="feColorMatrix20" />
      <feFlood
         flood-opacity="1"
         flood-color="rgb(39,55,77)"
         result="flood1"
         id="feFlood22" />
      <feBlend
         in="flood1"
         in2="colormatrix1"
         mode="normal"
         result="blend1"
         id="feBlend24" />
      <feBlend
         in2="blend1"
         mode="normal"
         result="blend2"
         id="feBlend26" />
      <feColorMatrix
         in="blend2"
         values="1"
         type="saturate"
         result="colormatrix2"
         id="feColorMatrix28" />
      <feComposite
         in="colormatrix2"
         in2="SourceGraphic"
         operator="in"
         result="composite2"
         id="feComposite30" />
    </filter>
    <filter
       style="color-interpolation-filters:sRGB"
       inkscape:label="Colorize"
       id="filter56">
      <feComposite
         in2="SourceGraphic"
         operator="arithmetic"
         k1="4.9"
         k2="5.3"
         result="composite1"
         id="feComposite42"
         k3="0"
         k4="0" />
      <feColorMatrix
         in="composite1"
         values="1"
         type="saturate"
         result="colormatrix1"
         id="feColorMatrix44" />
      <feFlood
         flood-opacity="1"
         flood-color="rgb(39,55,77)"
         result="flood1"
         id="feFlood46" />
      <feBlend
         in="flood1"
         in2="colormatrix1"
         mode="normal"
         result="blend1"
         id="feBlend48" />
      <feBlend
         in2="blend1"
         mode="normal"
         result="blend2"
         id="feBlend50" />
      <feColorMatrix
         in="blend2"
         values="1"
         type="saturate"
         result="colormatrix2"
         id="feColorMatrix52" />
      <feComposite
         in="colormatrix2"
         in2="SourceGraphic"
         operator="in"
         result="composite2"
         id="feComposite54" />
    </filter>
    <filter
       style="color-interpolation-filters:sRGB"
       inkscape:label="Colorize"
       id="filter80">
      <feComposite
         in2="SourceGraphic"
         operator="arithmetic"
         k1="4.9"
         k2="5.3"
         result="composite1"
         id="feComposite66"
         k3="0"
         k4="0" />
      <feColorMatrix
         in="composite1"
         values="1"
         type="saturate"
         result="colormatrix1"
         id="feColorMatrix68" />
      <feFlood
         flood-opacity="1"
         flood-color="rgb(39,55,77)"
         result="flood1"
         id="feFlood70" />
      <feBlend
         in="flood1"
         in2="colormatrix1"
         mode="normal"
         result="blend1"
         id="feBlend72" />
      <feBlend
         in2="blend1"
         mode="normal"
         result="blend2"
         id="feBlend74" />
      <feColorMatrix
         in="blend2"
         values="1"
         type="saturate"
         result="colormatrix2"
         id="feColorMatrix76" />
      <feComposite
         in="colormatrix2"
         in2="SourceGraphic"
         operator="in"
         result="composite2"
         id="feComposite78" />
    </filter>
  </defs>
  <sodipodi:namedview
     id="base"
     pagecolor="#ffffff"
     bordercolor="#666666"
     borderopacity="1.0"
     inkscape:pageopacity="0.0"
     inkscape:pageshadow="2"
     inkscape:zoom="0.35"
     inkscape:cx="-162.8367"
     inkscape:cy="414.37599"
     inkscape:document-units="mm"
     inkscape:current-layer="layer1"
     showgrid="false"
     inkscape:window-width="1366"
     inkscape:window-height="705"
     inkscape:window-x="-8"
     inkscape:window-y="-8"
     inkscape:window-maximized="1" />
  <metadata
     id="metadata5">
    <rdf:RDF>
      <cc:Work
         rdf:about="">
        <dc:format>image/svg+xml</dc:format>
        <dc:type
           rdf:resource="http://purl.org/dc/dcmitype/StillImage" />
        <dc:title></dc:title>
      </cc:Work>
    </rdf:RDF>
  </metadata>
  <g
     inkscape:label="Calque 1"
     inkscape:groupmode="layer"
     id="layer1"
     transform="translate(-148.91721,-240.77052)">
    <g
       transform="translate(53.413025,117.83818)"
       id="layer1-0"
       inkscape:label="Calque 1"
       style="filter:url(#filter80)">
      <path
         style="stroke-width:0.61457944"
         inkscape:connector-curvature="0"
         d="m 107.85715,132.08958 c 0,0.50879 -0.34409,0.92193 -0.76819,0.92193 -0.42395,0 -0.7682,-0.41314 -0.7682,-0.92193 0,-0.5091 0.34425,-0.92194 0.7682,-0.92194 0.4241,0 0.76819,0.41284 0.76819,0.92194 z m -4.76294,-0.92194 c -0.42408,0 -0.76818,0.41284 -0.76818,0.92194 0,0.50879 0.3441,0.92193 0.76818,0.92193 0.4241,0 0.76819,-0.41314 0.76819,-0.92193 0,-0.5091 -0.34409,-0.92194 -0.76819,-0.92194 z m 1.99738,5.13411 c 1.37368,0 1.84387,-1.44672 1.84387,-1.44672 h -3.68773 c 0,0 0.52074,1.44672 1.84386,1.44672 z m 7.98949,2.23644 c -1.63026,1.05353 -3.32991,0.77076 -4.20486,-0.91441 -1.02761,0.92496 -2.27776,1.52852 -3.78463,1.52852 -1.55482,0 -2.77606,-0.55926 -3.80049,-1.50279 -0.87943,1.66064 -2.567777,1.93593 -4.189017,0.88868 2.688712,-1.07548 -1.677167,-7.2599 2.52232,-11.90737 1.402467,-1.55186 3.362807,-2.2235 5.467187,-2.2235 2.10437,0 4.06494,0.67164 5.46738,2.2235 4.1995,4.64747 -0.16595,10.83189 2.52211,11.90737 z m -3.48342,-3.75559 c 0.0756,-0.12447 0.1917,-0.21791 0.32877,-0.26421 1.50397,-0.50903 1.56959,-2.68032 0.95516,-3.08031 -0.14428,-0.0949 -0.32637,-0.0715 -0.41307,-0.0322 -0.40788,0.18097 -0.86408,-0.11927 -0.86408,-0.56189 0,-0.28943 -0.009,-0.61519 -0.0587,-0.90507 h -6.20782 c -0.49969,-0.62765 -0.47395,-1.81009 -0.24343,-2.80878 -0.55499,0.60368 -1.04051,1.99665 -1.15231,2.80878 h -1.30333 c -0.0391,0.28988 -0.0587,0.61564 -0.0587,0.90507 0,0.44244 -0.45603,0.74303 -0.864073,0.56189 -0.08668,-0.0384 -0.268018,-0.0629 -0.413012,0.0322 -0.61458,0.39999 -0.548819,2.57128 0.955015,3.08031 0.13755,0.0474 0.25387,0.14034 0.32886,0.26421 1.05025,1.73863 2.46755,3.14102 4.50611,3.14102 2.03798,0 3.45579,-1.40301 4.5055,-3.14102 z"
         id="path395" />
    </g>
  </g>
</svg>
