<?xml version="1.0" encoding="UTF-8" standalone="no"?>
<!-- Created with Inkscape (http://www.inkscape.org/) -->

<svg
   xmlns:dc="http://purl.org/dc/elements/1.1/"
   xmlns:cc="http://creativecommons.org/ns#"
   xmlns:rdf="http://www.w3.org/1999/02/22-rdf-syntax-ns#"
   xmlns:svg="http://www.w3.org/2000/svg"
   xmlns="http://www.w3.org/2000/svg"
   xmlns:sodipodi="http://sodipodi.sourceforge.net/DTD/sodipodi-0.dtd"
   xmlns:inkscape="http://www.inkscape.org/namespaces/inkscape"
   width="31.75mm"
   height="31.75mm"
   viewBox="0 0 31.75 31.75"
   version="1.1"
   id="svg8"
   inkscape:version="0.92.1 r15371"
   sodipodi:docname="reservation-gold-120-120.svg">
  <defs
     id="defs2">
    <filter
       style="color-interpolation-filters:sRGB"
       inkscape:label="Colorize"
       id="filter317">
      <feComposite
         in2="SourceGraphic"
         operator="arithmetic"
         k1="4.9"
         k2="5.3"
         result="composite1"
         id="feComposite303"
         k3="0"
         k4="0" />
      <feColorMatrix
         in="composite1"
         values="1"
         type="saturate"
         result="colormatrix1"
         id="feColorMatrix305" />
      <feFlood
         flood-opacity="1"
         flood-color="rgb(39,55,77)"
         result="flood1"
         id="feFlood307" />
      <feBlend
         in="flood1"
         in2="colormatrix1"
         mode="normal"
         result="blend1"
         id="feBlend309" />
      <feBlend
         in2="blend1"
         mode="normal"
         result="blend2"
         id="feBlend311" />
      <feColorMatrix
         in="blend2"
         values="1"
         type="saturate"
         result="colormatrix2"
         id="feColorMatrix313" />
      <feComposite
         in="colormatrix2"
         in2="SourceGraphic"
         operator="in"
         result="composite2"
         id="feComposite315" />
    </filter>
    <filter
       style="color-interpolation-filters:sRGB"
       inkscape:label="Colorize"
       id="filter333">
      <feComposite
         in2="SourceGraphic"
         operator="arithmetic"
         k1="4.9"
         k2="5.3"
         result="composite1"
         id="feComposite319"
         k3="0"
         k4="0" />
      <feColorMatrix
         in="composite1"
         values="1"
         type="saturate"
         result="colormatrix1"
         id="feColorMatrix321" />
      <feFlood
         flood-opacity="1"
         flood-color="rgb(39,55,77)"
         result="flood1"
         id="feFlood323" />
      <feBlend
         in="flood1"
         in2="colormatrix1"
         mode="normal"
         result="blend1"
         id="feBlend325" />
      <feBlend
         in2="blend1"
         mode="normal"
         result="blend2"
         id="feBlend327" />
      <feColorMatrix
         in="blend2"
         values="1"
         type="saturate"
         result="colormatrix2"
         id="feColorMatrix329" />
      <feComposite
         in="colormatrix2"
         in2="SourceGraphic"
         operator="in"
         result="composite2"
         id="feComposite331" />
    </filter>
    <filter
       id="filter56"
       inkscape:label="Colorize"
       style="color-interpolation-filters:sRGB">
      <feComposite
         k4="0"
         k3="0"
         id="feComposite42"
         result="composite1"
         k2="5.3"
         k1="4.9"
         operator="arithmetic"
         in2="SourceGraphic" />
      <feColorMatrix
         id="feColorMatrix44"
         result="colormatrix1"
         type="saturate"
         values="1"
         in="composite1" />
      <feFlood
         id="feFlood46"
         result="flood1"
         flood-color="rgb(39,55,77)"
         flood-opacity="1" />
      <feBlend
         id="feBlend48"
         result="blend1"
         mode="normal"
         in2="colormatrix1"
         in="flood1" />
      <feBlend
         id="feBlend50"
         result="blend2"
         mode="normal"
         in2="blend1" />
      <feColorMatrix
         id="feColorMatrix52"
         result="colormatrix2"
         type="saturate"
         values="1"
         in="blend2" />
      <feComposite
         id="feComposite54"
         result="composite2"
         operator="in"
         in2="SourceGraphic"
         in="colormatrix2" />
    </filter>
    <filter
       style="color-interpolation-filters:sRGB"
       inkscape:label="Colorize"
       id="filter59">
      <feComposite
         in2="SourceGraphic"
         operator="arithmetic"
         k1="4.9"
         k2="5.3"
         result="composite1"
         id="feComposite44"
         k3="0"
         k4="0" />
      <feColorMatrix
         in="composite1"
         values="1"
         type="saturate"
         result="colormatrix1"
         id="feColorMatrix46" />
      <feFlood
         flood-opacity="1"
         flood-color="rgb(197,165,71)"
         result="flood1"
         id="feFlood48" />
      <feBlend
         in="flood1"
         in2="colormatrix1"
         mode="normal"
         result="blend1"
         id="feBlend51" />
      <feBlend
         in2="blend1"
         mode="normal"
         result="blend2"
         id="feBlend53" />
      <feColorMatrix
         in="blend2"
         values="1"
         type="saturate"
         result="colormatrix2"
         id="feColorMatrix55" />
      <feComposite
         in="colormatrix2"
         in2="SourceGraphic"
         operator="in"
         result="composite2"
         id="feComposite57" />
    </filter>
    <filter
       id="filter56-9"
       inkscape:label="Colorize"
       style="color-interpolation-filters:sRGB">
      <feComposite
         k4="0"
         k3="0"
         id="feComposite42-3"
         result="composite1"
         k2="5.3"
         k1="4.9"
         operator="arithmetic"
         in2="SourceGraphic" />
      <feColorMatrix
         id="feColorMatrix44-8"
         result="colormatrix1"
         type="saturate"
         values="1"
         in="composite1" />
      <feFlood
         id="feFlood46-2"
         result="flood1"
         flood-color="rgb(39,55,77)"
         flood-opacity="1" />
      <feBlend
         id="feBlend48-4"
         result="blend1"
         mode="normal"
         in2="colormatrix1"
         in="flood1" />
      <feBlend
         id="feBlend50-7"
         result="blend2"
         mode="normal"
         in2="blend1" />
      <feColorMatrix
         id="feColorMatrix52-2"
         result="colormatrix2"
         type="saturate"
         values="1"
         in="blend2" />
      <feComposite
         id="feComposite54-1"
         result="composite2"
         operator="in"
         in2="SourceGraphic"
         in="colormatrix2" />
    </filter>
    <filter
       style="color-interpolation-filters:sRGB"
       inkscape:label="Colorize"
       id="filter149">
      <feComposite
         k4="0"
         k3="0"
         in2="SourceGraphic"
         operator="arithmetic"
         k1="4.9"
         k2="5.3"
         result="composite1"
         id="feComposite135" />
      <feColorMatrix
         in="composite1"
         values="1"
         type="saturate"
         result="colormatrix1"
         id="feColorMatrix137" />
      <feFlood
         flood-opacity="1"
         flood-color="rgb(197,165,71)"
         result="flood1"
         id="feFlood139" />
      <feBlend
         in="flood1"
         in2="colormatrix1"
         mode="normal"
         result="blend1"
         id="feBlend141" />
      <feBlend
         in2="blend1"
         mode="normal"
         result="blend2"
         id="feBlend143" />
      <feColorMatrix
         in="blend2"
         values="1"
         type="saturate"
         result="colormatrix2"
         id="feColorMatrix145" />
      <feComposite
         in="colormatrix2"
         in2="SourceGraphic"
         operator="in"
         result="composite2"
         id="feComposite147" />
    </filter>
    <filter
       id="filter56-7"
       inkscape:label="Colorize"
       style="color-interpolation-filters:sRGB">
      <feComposite
         k4="0"
         k3="0"
         id="feComposite42-9"
         result="composite1"
         k2="5.3"
         k1="4.9"
         operator="arithmetic"
         in2="SourceGraphic" />
      <feColorMatrix
         id="feColorMatrix44-6"
         result="colormatrix1"
         type="saturate"
         values="1"
         in="composite1" />
      <feFlood
         id="feFlood46-4"
         result="flood1"
         flood-color="rgb(39,55,77)"
         flood-opacity="1" />
      <feBlend
         id="feBlend48-1"
         result="blend1"
         mode="normal"
         in2="colormatrix1"
         in="flood1" />
      <feBlend
         id="feBlend50-0"
         result="blend2"
         mode="normal"
         in2="blend1" />
      <feColorMatrix
         id="feColorMatrix52-4"
         result="colormatrix2"
         type="saturate"
         values="1"
         in="blend2" />
      <feComposite
         id="feComposite54-7"
         result="composite2"
         operator="in"
         in2="SourceGraphic"
         in="colormatrix2" />
    </filter>
    <filter
       style="color-interpolation-filters:sRGB"
       inkscape:label="Colorize"
       id="filter59-4">
      <feComposite
         in2="SourceGraphic"
         operator="arithmetic"
         k1="4.9"
         k2="5.3"
         result="composite1"
         id="feComposite44-5"
         k3="0"
         k4="0" />
      <feColorMatrix
         in="composite1"
         values="1"
         type="saturate"
         result="colormatrix1"
         id="feColorMatrix46-3" />
      <feFlood
         flood-opacity="1"
         flood-color="rgb(197,165,71)"
         result="flood1"
         id="feFlood48-6" />
      <feBlend
         in="flood1"
         in2="colormatrix1"
         mode="normal"
         result="blend1"
         id="feBlend51-3" />
      <feBlend
         in2="blend1"
         mode="normal"
         result="blend2"
         id="feBlend53-2" />
      <feColorMatrix
         in="blend2"
         values="1"
         type="saturate"
         result="colormatrix2"
         id="feColorMatrix55-9" />
      <feComposite
         in="colormatrix2"
         in2="SourceGraphic"
         operator="in"
         result="composite2"
         id="feComposite57-8" />
    </filter>
    <filter
       id="filter56-9-5"
       inkscape:label="Colorize"
       style="color-interpolation-filters:sRGB">
      <feComposite
         k4="0"
         k3="0"
         id="feComposite42-3-7"
         result="composite1"
         k2="5.3"
         k1="4.9"
         operator="arithmetic"
         in2="SourceGraphic" />
      <feColorMatrix
         id="feColorMatrix44-8-3"
         result="colormatrix1"
         type="saturate"
         values="1"
         in="composite1" />
      <feFlood
         id="feFlood46-2-7"
         result="flood1"
         flood-color="rgb(39,55,77)"
         flood-opacity="1" />
      <feBlend
         id="feBlend48-4-0"
         result="blend1"
         mode="normal"
         in2="colormatrix1"
         in="flood1" />
      <feBlend
         id="feBlend50-7-5"
         result="blend2"
         mode="normal"
         in2="blend1" />
      <feColorMatrix
         id="feColorMatrix52-2-9"
         result="colormatrix2"
         type="saturate"
         values="1"
         in="blend2" />
      <feComposite
         id="feComposite54-1-9"
         result="composite2"
         operator="in"
         in2="SourceGraphic"
         in="colormatrix2" />
    </filter>
    <filter
       style="color-interpolation-filters:sRGB"
       inkscape:label="Colorize"
       id="filter149-4">
      <feComposite
         in2="SourceGraphic"
         operator="arithmetic"
         k1="4.9"
         k2="5.3"
         result="composite1"
         id="feComposite135-9"
         k3="0"
         k4="0" />
      <feColorMatrix
         in="composite1"
         values="1"
         type="saturate"
         result="colormatrix1"
         id="feColorMatrix137-0" />
      <feFlood
         flood-opacity="1"
         flood-color="rgb(197,165,71)"
         result="flood1"
         id="feFlood139-5" />
      <feBlend
         in="flood1"
         in2="colormatrix1"
         mode="normal"
         result="blend1"
         id="feBlend141-3" />
      <feBlend
         in2="blend1"
         mode="normal"
         result="blend2"
         id="feBlend143-8" />
      <feColorMatrix
         in="blend2"
         values="1"
         type="saturate"
         result="colormatrix2"
         id="feColorMatrix145-0" />
      <feComposite
         in="colormatrix2"
         in2="SourceGraphic"
         operator="in"
         result="composite2"
         id="feComposite147-3" />
    </filter>
    <filter
       id="filter56-4"
       inkscape:label="Colorize"
       style="color-interpolation-filters:sRGB">
      <feComposite
         id="feComposite42-7"
         result="composite1"
         k2="5.3"
         k1="4.9"
         operator="arithmetic"
         in2="SourceGraphic"
         k3="0"
         k4="0" />
      <feColorMatrix
         id="feColorMatrix44-7"
         result="colormatrix1"
         type="saturate"
         values="1"
         in="composite1" />
      <feFlood
         id="feFlood46-20"
         result="flood1"
         flood-color="rgb(39,55,77)"
         flood-opacity="1" />
      <feBlend
         id="feBlend48-5"
         result="blend1"
         mode="normal"
         in2="colormatrix1"
         in="flood1" />
      <feBlend
         id="feBlend50-8"
         result="blend2"
         mode="normal"
         in2="blend1" />
      <feColorMatrix
         id="feColorMatrix52-3"
         result="colormatrix2"
         type="saturate"
         values="1"
         in="blend2" />
      <feComposite
         id="feComposite54-4"
         result="composite2"
         operator="in"
         in2="SourceGraphic"
         in="colormatrix2" />
    </filter>
    <filter
       style="color-interpolation-filters:sRGB"
       inkscape:label="Colorize"
       id="filter203">
      <feComposite
         k4="0"
         k3="0"
         in2="SourceGraphic"
         operator="arithmetic"
         k1="4.9"
         k2="5.3"
         result="composite1"
         id="feComposite189" />
      <feColorMatrix
         in="composite1"
         values="1"
         type="saturate"
         result="colormatrix1"
         id="feColorMatrix191" />
      <feFlood
         flood-opacity="1"
         flood-color="rgb(197,165,71)"
         result="flood1"
         id="feFlood193" />
      <feBlend
         in="flood1"
         in2="colormatrix1"
         mode="normal"
         result="blend1"
         id="feBlend195" />
      <feBlend
         in2="blend1"
         mode="normal"
         result="blend2"
         id="feBlend197" />
      <feColorMatrix
         in="blend2"
         values="1"
         type="saturate"
         result="colormatrix2"
         id="feColorMatrix199" />
      <feComposite
         in="colormatrix2"
         in2="SourceGraphic"
         operator="in"
         result="composite2"
         id="feComposite201" />
    </filter>
    <filter
       id="filter305"
       inkscape:label="Colorize"
       style="color-interpolation-filters:sRGB">
      <feComposite
         id="feComposite291"
         result="composite1"
         k2="5.3"
         k1="4.9"
         operator="arithmetic"
         in2="SourceGraphic"
         k3="0"
         k4="0" />
      <feColorMatrix
         id="feColorMatrix293"
         result="colormatrix1"
         type="saturate"
         values="1"
         in="composite1" />
      <feFlood
         id="feFlood295"
         result="flood1"
         flood-color="rgb(197,165,71)"
         flood-opacity="1" />
      <feBlend
         id="feBlend297"
         result="blend1"
         mode="normal"
         in2="colormatrix1"
         in="flood1" />
      <feBlend
         id="feBlend299"
         result="blend2"
         mode="normal"
         in2="blend1" />
      <feColorMatrix
         id="feColorMatrix301"
         result="colormatrix2"
         type="saturate"
         values="1"
         in="blend2" />
      <feComposite
         id="feComposite303-4"
         result="composite2"
         operator="in"
         in2="SourceGraphic"
         in="colormatrix2" />
    </filter>
  </defs>
  <sodipodi:namedview
     id="base"
     pagecolor="#ffffff"
     bordercolor="#666666"
     borderopacity="1.0"
     inkscape:pageopacity="0.0"
     inkscape:pageshadow="2"
     inkscape:zoom="4.4"
     inkscape:cx="82.700111"
     inkscape:cy="63.241264"
     inkscape:document-units="mm"
     inkscape:current-layer="g199"
     showgrid="false"
     showguides="true"
     inkscape:guide-bbox="true"
     inkscape:window-width="1366"
     inkscape:window-height="705"
     inkscape:window-x="-8"
     inkscape:window-y="-8"
     inkscape:window-maximized="1" />
  <metadata
     id="metadata5">
    <rdf:RDF>
      <cc:Work
         rdf:about="">
        <dc:format>image/svg+xml</dc:format>
        <dc:type
           rdf:resource="http://purl.org/dc/dcmitype/StillImage" />
        <dc:title></dc:title>
      </cc:Work>
    </rdf:RDF>
  </metadata>
  <g
     inkscape:label="Calque 1"
     inkscape:groupmode="layer"
     id="layer1"
     transform="translate(-165.99223,-158.77125)">
    <g
       transform="translate(68.442927,74.681778)"
       id="layer1-2"
       inkscape:label="Calque 1">
      <g
         transform="matrix(0.26458333,0,0,0.26458333,96.46689,86.987628)"
         id="g33">
        <g
           id="g199"
           transform="translate(-6.3201513,-72.936242)">
          <g
             transform="matrix(3.3745782,0,0,3.3745782,-276.61905,-186.0474)"
             id="layer1-0"
             inkscape:label="Calque 1">
            <g
               inkscape:transform-center-y="-19.654762"
               inkscape:transform-center-x="134.55952"
               transform="matrix(0.26458333,0,0,0.26458333,87.490784,100.27538)"
               id="g289">
              <g
                 style="filter:url(#filter305)"
                 transform="matrix(5.6000001,0,0,5.6000001,-9.1999995,-101.2)"
                 id="g266">
                <g
                   id="g262">
                  <path
                     inkscape:connector-curvature="0"
                     d="m 21,16 v -2 c 0,-1.6 -1.3,-3 -3,-3 -1.7,0 -3,1.4 -3,3 v 2 h -1 v 6 h 8 v -6 z m -2,0 h -2 v -2 c 0,-0.6 0.4,-1 1,-1 0.6,0 1,0.4 1,1 z"
                     id="path254" />
                  <rect
                     x="6"
                     y="16"
                     width="6"
                     height="2"
                     id="rect256" />
                  <rect
                     x="6"
                     y="12"
                     width="7"
                     height="2"
                     id="rect258" />
                  <rect
                     x="6"
                     y="8"
                     width="9"
                     height="2"
                     id="rect260" />
                </g>
                <polygon
                   points="12,22 2,22 2,5 5,2 19,2 19,9 17,9 17,4 6,4 6,6 4,6 4,20 12,20 "
                   id="polygon264" />
              </g>
            </g>
          </g>
        </g>
      </g>
    </g>
  </g>
</svg>
