<?xml version="1.0" encoding="iso-8859-1"?>
<!-- Generator: Adobe Illustrator 19.0.0, SVG Export Plug-In . SVG Version: 6.00 Build 0)  -->
<svg version="1.1" id="Capa_1" xmlns="http://www.w3.org/2000/svg" xmlns:xlink="http://www.w3.org/1999/xlink" x="0px" y="0px"
	 viewBox="0 0 512 512" style="enable-background:new 0 0 512 512;" xml:space="preserve">
<circle style="fill:#E48C21;" cx="256" cy="256" r="256"/>
<path style="fill:#966117;" d="M512,256c0-7.464-0.338-14.848-0.964-22.15L394.593,117.407l-276.68,277.68l115.95,115.95
	C241.161,511.662,248.54,512,256,512C397.385,512,512,397.385,512,256z"/>
<path style="fill:#A1B8D8;" d="M256,60l-15.325,196L256,452c108.248,0,196-87.752,196-196S364.248,60,256,60z"/>
<path style="fill:#D6E6FD;" d="M60,256c0,108.248,87.752,196,196,196V60C147.752,60,60,147.752,60,256z"/>
<rect x="168.18" y="120.585" transform="matrix(-0.5 -0.866 0.866 -0.5 162.3138 357.8498)" style="fill:#6C819F;" width="32.556" height="22.968"/>
<rect x="311.281" y="368.435" transform="matrix(-0.5 -0.866 0.866 -0.5 162.3257 853.5559)" style="fill:#384C6C;" width="32.556" height="22.968"/>
<rect x="115.795" y="172.963" transform="matrix(-0.866 -0.5 0.5 -0.866 154.2248 410.2191)" style="fill:#6C819F;" width="32.556" height="22.968"/>
<rect x="363.639" y="316.049" transform="matrix(-0.866 -0.5 0.5 -0.866 545.1627 801.1452)" style="fill:#384C6C;" width="32.556" height="22.968"/>
<rect x="96.63" y="244.52" style="fill:#6C819F;" width="32.557" height="22.969"/>
<rect x="382.82" y="244.52" style="fill:#384C6C;" width="32.557" height="22.969"/>
<rect x="120.596" y="311.263" transform="matrix(-0.5 -0.866 0.866 -0.5 -85.5347 605.6988)" style="fill:#6C819F;" width="22.968" height="32.556"/>
<rect x="368.446" y="168.161" transform="matrix(-0.5 -0.866 0.866 -0.5 410.1714 605.6868)" style="fill:#384C6C;" width="22.968" height="32.556"/>
<rect x="172.974" y="363.629" transform="matrix(-0.866 -0.5 0.5 -0.866 154.2452 801.1443)" style="fill:#6C819F;" width="22.968" height="32.556"/>
<g>
	
		<rect x="316.05" y="115.794" transform="matrix(-0.866 -0.5 0.5 -0.866 545.1476 410.22)" style="fill:#384C6C;" width="22.968" height="32.556"/>
	<polygon style="fill:#384C6C;" points="333.98,244.516 267.484,244.516 267.484,153.602 256,153.602 248.338,220.526 256,267.484 
		333.98,267.484 	"/>
</g>
<rect x="244.52" y="153.6" style="fill:#6C819F;" width="11.484" height="113.88"/>
<polygon style="fill:#384C6C;" points="267.484,96.627 256,96.627 248.338,112.905 256,129.184 267.484,129.184 "/>
<rect x="244.52" y="96.63" style="fill:#6C819F;" width="11.484" height="32.557"/>
<polygon style="fill:#384C6C;" points="267.484,382.816 256,382.816 248.338,399.095 256,415.373 267.484,415.373 "/>
<rect x="244.52" y="382.82" style="fill:#6C819F;" width="11.484" height="32.557"/>
<g>
</g>
<g>
</g>
<g>
</g>
<g>
</g>
<g>
</g>
<g>
</g>
<g>
</g>
<g>
</g>
<g>
</g>
<g>
</g>
<g>
</g>
<g>
</g>
<g>
</g>
<g>
</g>
<g>
</g>
</svg>
