<?xml version="1.0" encoding="utf-8"?>
<!-- Generator: Adobe Illustrator 16.0.0, SVG Export Plug-In . SVG Version: 6.00 Build 0)  -->
<!DOCTYPE svg PUBLIC "-//W3C//DTD SVG 1.1//EN" "http://www.w3.org/Graphics/SVG/1.1/DTD/svg11.dtd">
<svg version="1.1"
	 id="svg8" sodipodi:docname="clock-blue-150.svg" inkscape:version="0.92.1 r15371" xmlns:dc="http://purl.org/dc/elements/1.1/" xmlns:cc="http://creativecommons.org/ns#" xmlns:rdf="http://www.w3.org/1999/02/22-rdf-syntax-ns#" xmlns:svg="http://www.w3.org/2000/svg" xmlns:sodipodi="http://sodipodi.sourceforge.net/DTD/sodipodi-0.dtd" xmlns:inkscape="http://www.inkscape.org/namespaces/inkscape"
	 xmlns="http://www.w3.org/2000/svg" xmlns:xlink="http://www.w3.org/1999/xlink" x="0px" y="0px" width="120px" height="120px"
	 viewBox="-3.75 -3.75 120 120" enable-background="new -3.75 -3.75 120 120" xml:space="preserve">
<sodipodi:namedview  showgrid="false" inkscape:cy="119.53843" inkscape:cx="-99.922106" inkscape:zoom="1" borderopacity="1.0" pagecolor="#ffffff" bordercolor="#666666" id="base" inkscape:window-maximized="1" inkscape:window-y="-8" inkscape:window-x="-8" inkscape:window-height="705" inkscape:window-width="1366" inkscape:current-layer="g36" inkscape:document-units="mm" inkscape:pageshadow="2" inkscape:pageopacity="0.0">
	</sodipodi:namedview>
<g id="layer1" transform="translate(-132.27106,-97.644295)" inkscape:label="Calque 1" inkscape:groupmode="layer">
	<g id="g33" transform="matrix(0.26458333,0,0,0.26458333,96.46689,86.987628)">
		<g id="layer1-9" transform="matrix(2.4349516,0,0,2.4205819,-335.26196,-390.02207)" inkscape:label="Calque 1">
			<g id="g36" transform="matrix(0.26458333,0,0,0.26458333,72.19508,138.20494)">
				<g id="flowRoot119" transform="matrix(1.5521983,0,0,1.5614128,226.41983,-33.28044)">
				</g>
				<g id="layer1-3" transform="matrix(3.6339899,0,0,3.655563,135.16215,-85.556216)" inkscape:label="Calque 1">
					<g id="g309" transform="matrix(0.26458333,0,0,0.26458333,84.65892,105.98282)">
						<path id="path292" inkscape:connector-curvature="0" d="M575.776-31.503c-58.4-58.4-135.241-90.162-217.207-90.162
							S199.762-89.903,141.366-31.503c-58.4,58.4-90.162,135.241-90.162,217.204c0,81.966,31.762,158.807,90.162,217.207
							c58.397,58.4,135.238,90.159,217.204,90.159s158.807-31.759,217.207-90.159s90.159-135.241,90.159-217.207
							C665.935,103.738,634.176,26.896,575.776-31.503z M358.57,485.892c-165.978,0-300.194-135.241-300.194-300.191
							c0-164.953,134.216-300.195,300.194-300.195c165.975,0,300.191,134.216,300.191,300.195
							C658.761,351.676,524.545,485.892,358.57,485.892z M556.31-12.037C504.053-64.29,433.361-94.003,358.57-94.003
							S214.108-65.315,160.832-12.037C107.554,41.239,78.867,110.909,78.867,185.7s28.687,144.459,81.966,197.74
							c52.25,52.25,122.946,81.96,197.737,81.96s144.459-28.684,197.74-81.96c52.25-52.256,81.96-122.948,81.96-197.74
							S608.56,41.239,556.31-12.037z M358.57,458.232c-150.608,0-272.532-121.924-272.532-272.532S207.961-86.832,358.57-86.832
							S631.102,35.092,631.102,185.7S509.178,458.232,358.57,458.232z M241.77,381.391l6.149,3.075l-14.345,25.61l-6.146-3.075
							L241.77,381.391z M484.587-38.677l6.149,3.074L476.394-9.99l-6.149-3.072L484.587-38.677z M158.783,297.375l3.072,6.149
							l-25.613,14.342l-3.075-6.149L158.783,297.375z M579.87,54.559l3.075,6.146l-25.61,14.345l-3.075-6.149L579.87,54.559z
							 M101.408,182.626h28.687v7.174h-28.687V182.626z M615.734,182.626v7.174h-28.69v-7.174H615.734z M137.266,54.559
							l25.613,14.342l-3.072,6.149l-25.616-14.345L137.266,54.559z M558.36,297.375l25.61,14.342l-3.075,6.149l-25.61-14.342
							L558.36,297.375z M232.549-38.677l14.345,25.616l-6.149,3.072l-14.342-25.613L232.549-38.677z M475.369,381.391l14.342,25.61
							l-6.149,3.075l-14.342-25.61L475.369,381.391z M361.644-42.774h-7.174v-28.688h7.174V-42.774z M355.495,414.175h7.174v28.69
							h-7.174V414.175z M355.495,189.8L314.515-4.866l6.146-1.025L360.619,185.7l116.799-37.908l2.05,6.146l-119.874,39.961h-1.025
							c-1.025,0-1.025,0-2.05,0C356.52,191.85,355.495,190.825,355.495,189.8z"/>
					</g>
				</g>
			</g>
		</g>
	</g>
</g>
</svg>
