<?xml version="1.0" encoding="utf-8"?>
<!-- Generator: Adobe Illustrator 16.0.0, SVG Export Plug-In . SVG Version: 6.00 Build 0)  -->
<!DOCTYPE svg PUBLIC "-//W3C//DTD SVG 1.1//EN" "http://www.w3.org/Graphics/SVG/1.1/DTD/svg11.dtd">
<svg version="1.1"
	 id="svg8" xmlns:dc="http://purl.org/dc/elements/1.1/" xmlns:cc="http://creativecommons.org/ns#" xmlns:rdf="http://www.w3.org/1999/02/22-rdf-syntax-ns#" xmlns:svg="http://www.w3.org/2000/svg" xmlns:sodipodi="http://sodipodi.sourceforge.net/DTD/sodipodi-0.dtd" xmlns:inkscape="http://www.inkscape.org/namespaces/inkscape" inkscape:version="0.92.1 r15371" sodipodi:docname="eye-blue.svg"
	 xmlns="http://www.w3.org/2000/svg" xmlns:xlink="http://www.w3.org/1999/xlink" x="0px" y="0px" width="140.023px"
	 height="140.02px" viewBox="0 0 140.023 140.02" enable-background="new 0 0 140.023 140.02" xml:space="preserve">
<sodipodi:namedview  id="base" bordercolor="#666666" pagecolor="#ffffff" borderopacity="1.0" inkscape:zoom="9.95" inkscape:cx="23.764363" inkscape:cy="63.069354" showgrid="false" showguides="true" inkscape:measure-start="22.2783,52.3698" inkscape:measure-end="16.7433,52.3707" inkscape:pageopacity="0.0" inkscape:pageshadow="2" inkscape:document-units="mm" inkscape:window-x="-8" inkscape:window-y="-8" inkscape:current-layer="g199" inkscape:guide-bbox="true" inkscape:window-maximized="1" inkscape:window-width="1366" inkscape:window-height="705">
	<sodipodi:guide  position="21.610286,14.069223" orientation="0,1" inkscape:locked="false" id="guide83"></sodipodi:guide>
</sodipodi:namedview>
<g id="layer1" transform="translate(-119.72023,-81.852032)" inkscape:label="Calque 1" inkscape:groupmode="layer">
	<g id="layer1-20" transform="translate(36.67628,-12.396606)" inkscape:label="Calque 1">
		<g id="layer1-3" transform="translate(-78.497018,-57.701928)" inkscape:label="Calque 1">
			<g id="layer1-2" transform="translate(68.442927,74.681778)" inkscape:label="Calque 1">
				<g id="g33" transform="matrix(0.26458333,0,0,0.26458333,96.46689,86.987628)">
					<g id="g199" transform="translate(-6.3201513,-72.936242)">
						
							<path id="path179" inkscape:connector-curvature="0" sodipodi:nodetypes="scccscccsscscs" fill="#27374D" stroke="#27374D" stroke-miterlimit="10" d="
							M258.183,161.066c-118.378,0-216.884,115.37-235.06,137.783l-1.569,1.927l1.569,1.927
							c18.187,22.441,117.064,137.779,235.06,137.779c118.321,0,216.884-115.357,235.065-137.779l1.561-1.927l-1.561-1.927
							C475.067,276.436,376.556,161.066,258.183,161.066z M258.183,166.969c113.157,0,209.114,109.372,229.134,133.806
							c-20.02,24.434-116.032,133.819-229.134,133.819c-112.773,0-209.107-109.396-229.13-133.819
							C49.076,276.342,145.026,166.969,258.183,166.969z"/>
						
							<path id="path181" inkscape:connector-curvature="0" sodipodi:nodetypes="cssccccccsccsscccsss" fill="#27374D" stroke="#27374D" stroke-miterlimit="10" d="
							M268.691,218.294c-21.791-2.877-45.037,3.938-63.427,23.135c-24.528,25.586-28.596,60.838-17.846,89.683
							c10.46,28.047,35.081,50.082,67.991,51.902v0.495l2.752,0.022c43.214,0.369,78.603-36.662,79.049-82.729v-0.004v-0.015
							c0.096-36.579-20.621-64.392-47.447-76.462C283.053,221.297,275.952,219.257,268.691,218.294L268.691,218.294z
							 M268.034,224.129c6.732,0.906,13.332,2.814,19.581,5.621c24.969,11.235,44.147,36.81,44.055,71.018
							c-0.41,42.132-32.204,75.868-71.486,76.654l-1.949-0.041c-32.091-0.631-55.663-21.607-65.671-48.451
							c-10.002-26.855-6.361-59.362,16.574-83.288C226.34,227.693,247.827,221.409,268.034,224.129z"/>
						
							<path id="path179-5" inkscape:connector-curvature="0" sodipodi:nodetypes="scccscccsscscs" fill="#27374D" stroke="#27374D" stroke-miterlimit="10" d="
							M258.15,140.142c-132.357,0-242.493,132.649-262.818,158.416l-1.746,2.218l1.746,2.211
							c20.339,25.785,130.887,158.416,262.818,158.416c132.295,0,242.495-132.642,262.818-158.416l1.753-2.211l-1.753-2.218
							C500.653,272.791,390.5,140.142,258.15,140.142z M258.15,146.928c126.515,0,233.8,125.754,256.189,153.848
							C491.95,328.875,384.606,454.611,258.15,454.611c-126.088,0-233.799-125.751-256.183-153.835
							C24.351,272.682,131.632,146.928,258.15,146.928z"/>
					</g>
				</g>
			</g>
		</g>
	</g>
</g>
</svg>
