<?xml version="1.0" encoding="iso-8859-1"?>
<!DOCTYPE svg PUBLIC "-//W3C//DTD SVG 1.1//EN" "http://www.w3.org/Graphics/SVG/1.1/DTD/svg11.dtd">
<svg xmlns="http://www.w3.org/2000/svg" xmlns:xlink="http://www.w3.org/1999/xlink" version="1.1" viewBox="0 0 452.84 452.84" enable-background="new 0 0 452.84 452.84" width="512px" height="512px">
  <g>
    <path d="m449.483,190.4l.001-.001-57.824-38.335v-128.134c0-4.142-3.358-7.5-7.5-7.5h-315.49c-4.142,0-7.5,3.358-7.5,7.5v128.143l-57.814,38.326 .001,.002c-2.022,1.343-3.357,3.639-3.357,6.249v232.26c0,4.142 3.358,7.5 7.5,7.5h437.84c4.142,0 7.5-3.358 7.5-7.5v-232.26c0-2.61-1.335-4.906-3.357-6.25zm-388.313,26.229l-23.525-12.479h23.525v12.479zm-46.17-7.511l172.475,91.49-172.475,114.327v-205.817zm211.417,83.671l194.037,128.621h-388.073l194.036-128.621zm38.945,7.82l172.477-91.491v205.821l-172.477-114.33zm126.298-96.459h23.536l-23.536,12.484v-12.484zm28.794-15h-28.794v-19.09l28.794,19.09zm-43.794-157.72v193.161l-125.527,66.586-20.573-13.637c-2.511-1.665-5.776-1.665-8.287,0l-20.57,13.635-125.533-66.589v-193.156h300.49zm-315.49,157.72h-28.782l28.782-19.08v19.08z" fill="#c5a547"/>
    <path d="m226.415,213.671h59.754c4.142,0 7.5-3.358 7.5-7.5s-3.358-7.5-7.5-7.5h-59.754c-28.813,0-52.254-23.441-52.254-52.254v-2.213c0-28.813 23.441-52.254 52.254-52.254s52.254,23.441 52.254,52.254v5.533c0,6.237-5.074,11.312-11.312,11.312s-11.312-5.074-11.312-11.312v-10.512c0-17.864-14.533-32.398-32.397-32.398s-32.397,14.533-32.397,32.398c0,17.864 14.533,32.397 32.397,32.397 8.169,0 15.636-3.045 21.34-8.052 4.644,7.483 12.932,12.478 22.369,12.478 14.508,0 26.312-11.803 26.312-26.312v-5.533c0-37.084-30.17-67.254-67.254-67.254s-67.254,30.17-67.254,67.254v2.213c5.68434e-14,37.085 30.17,67.255 67.254,67.255zm-2.767-57.049c-9.593,0-17.397-7.804-17.397-17.397s7.805-17.398 17.397-17.398 17.397,7.805 17.397,17.398-7.804,17.397-17.397,17.397z" fill="#c5a547"/>
  </g>
</svg>
