<?xml version="1.0" encoding="utf-8"?>
<!-- Generator: Adobe Illustrator 16.0.0, SVG Export Plug-In . SVG Version: 6.00 Build 0)  -->
<!DOCTYPE svg PUBLIC "-//W3C//DTD SVG 1.1//EN" "http://www.w3.org/Graphics/SVG/1.1/DTD/svg11.dtd">
<svg version="1.1" id="Layer_1" xmlns="http://www.w3.org/2000/svg" xmlns:xlink="http://www.w3.org/1999/xlink" x="0px" y="0px"
	 width="512px" height="512px" viewBox="0 0 512 512" enable-background="new 0 0 512 512" xml:space="preserve">
<g>
	<g>
		<path fill="#27374D" d="M367.165,218.99h-88.764c-3.95-14.106-11.706-26.967-22.566-36.94
			c-16.461-15.117-37.723-22.057-59.875-19.545c-35.525,4.029-63.937,33.438-67.556,69.926
			c-1.977,19.918,3.335,39.611,14.954,55.449c11.135,15.178,27.114,25.67,45.102,29.646l18.922,19.404
			c1.588,1.629,3.698,2.492,5.849,2.491c1.069,0,2.148-0.213,3.179-0.65c3.107-1.32,5.114-4.4,5.114-7.849v-13.586
			c3.111-0.713,6.143-1.617,9.086-2.695v0.538c0,9.52,7.553,17.266,16.835,17.266h28.27l15.06,15.443
			c1.347,1.381,3.135,2.113,4.958,2.113c0.906,0,1.82-0.182,2.694-0.552c2.634-1.119,4.335-3.73,4.335-6.654v-10.351h64.402
			c9.283,0,16.836-7.746,16.836-17.266v-78.925C384,226.735,376.447,218.99,367.165,218.99z M216.813,309.924
			c-1.913,0.35-3.305,2.055-3.305,4.047v16.951c0,0.098,0,0.184-0.165,0.253c-0.165,0.07-0.223,0.011-0.292-0.059l-19.77-20.273
			c-0.561-0.575-1.275-0.967-2.053-1.125c-16.542-3.371-31.268-12.882-41.464-26.78c-10.402-14.181-15.156-31.821-13.385-49.675
			c1.561-15.734,8.507-30.7,19.56-42.144c11.054-11.444,25.58-18.705,40.902-20.442c2.666-0.303,5.314-0.453,7.942-0.453
			c16.947,0,32.942,6.232,45.703,17.95c14.541,13.353,22.88,32.483,22.88,52.485C273.367,274.8,249.583,303.929,216.813,309.924z
			 M375.983,315.18c0,4.986-3.956,9.043-8.818,9.043h-68.411c-2.213,0-4.008,1.841-4.008,4.111v12l-14.536-14.906
			c-0.751-0.771-1.771-1.204-2.834-1.204h-29.929c-4.862,0-8.818-4.057-8.818-9.044v-4.008
			c25.66-12.935,42.756-39.922,42.756-70.512c0-4.539-0.391-9.036-1.14-13.448h86.92c4.862,0,8.818,4.057,8.818,9.043V315.18
			L375.983,315.18z"/>
	</g>
</g>
<g>
	<g>
		<path fill="#27374D" d="M352.896,250.887c-1.565-1.605-4.104-1.605-5.669,0l-39.922,40.941l-18.535-19.008
			c-1.565-1.605-4.104-1.605-5.668,0c-1.565,1.605-1.565,4.208,0,5.813l21.368,21.913c0.782,0.803,1.809,1.204,2.834,1.204
			s2.052-0.4,2.835-1.204l42.756-43.847C354.462,255.094,354.462,252.492,352.896,250.887z"/>
	</g>
</g>
<g>
	<g>
		<path fill="#27374D" d="M204.693,271.621c-0.001,0-0.003,0-0.005,0c-2.214,0-4.011,1.843-4.011,4.113c0,0,0,0.002,0,0.003
			s0,0.001,0,0.002c0,2.271,1.797,4.113,4.011,4.113c0.001,0,0.004,0,0.005,0c2.213,0,4.011-1.843,4.011-4.113c0,0,0-0.001,0-0.002
			s0-0.002,0-0.003C208.704,273.464,206.906,271.621,204.693,271.621z"/>
	</g>
</g>
<g>
	<g>
		<path fill="#27374D" d="M222.547,209.192c-4.856-4.979-11.199-7.722-17.859-7.722c-13.997,0.001-25.385,11.681-25.385,26.034
			c0,2.27,1.794,4.111,4.009,4.111c2.213,0,4.008-1.84,4.008-4.111c0-9.821,7.792-17.812,17.369-17.813
			c4.52,0,8.849,1.887,12.19,5.313c3.341,3.427,5.182,7.867,5.182,12.502c0,7.808-5.088,14.824-12.371,17.064
			c-5.388,1.656-9.007,6.607-9.007,12.318v1.31c0,2.271,1.794,4.111,4.008,4.111c2.213,0,4.008-1.841,4.008-4.111v-1.31
			c0-2.052,1.324-3.837,3.293-4.443c10.647-3.274,18.084-13.529,18.085-24.938C230.077,220.677,227.403,214.172,222.547,209.192z"/>
	</g>
</g>
</svg>
