<?xml version="1.0" encoding="iso-8859-1"?>
<!-- Generator: Adobe Illustrator 19.0.0, SVG Export Plug-In . SVG Version: 6.00 Build 0)  -->
<svg xmlns="http://www.w3.org/2000/svg" xmlns:xlink="http://www.w3.org/1999/xlink" version="1.1" id="Layer_1" x="0px" y="0px" viewBox="0 0 512.001 512.001" style="enable-background:new 0 0 512.001 512.001;" xml:space="preserve" width="512px" height="512px">
<g>
	<g>
		<path d="M512.001,32.003c0-8.547-3.328-16.586-9.375-22.625c-6.031-6.047-14.078-9.375-22.625-9.375s-16.578,3.328-22.624,9.375    L217.918,248.837l-62.781-6.977c-3.219-0.352-6.43,0.773-8.719,3.062l-14.602,14.602c-6.328,4.867-69.96,53.461-125.913,81.445    c-3.07,1.531-5.211,4.438-5.766,7.828c-0.546,3.391,0.562,6.828,2.992,9.234l24.766,24.781c0.023,0.031,0.047,0.047,0.07,0.062    l95.726,95.732c0.016,0.016,0.039,0.047,0.055,0.047l30.211,30.219c2.016,2.016,4.734,3.125,7.539,3.125    c0.57,0,1.141-0.047,1.711-0.141c3.383-0.547,6.297-2.688,7.836-5.766c27.976-55.953,76.569-119.592,81.437-125.904l14.602-14.594    c2.289-2.297,3.414-5.5,3.055-8.719l-6.969-62.781L502.626,54.628C508.673,48.581,512.001,40.542,512.001,32.003z     M137.926,281.689l8.492,8.484c-4.164,4.172-4.164,10.922,0,15.078c2.078,2.094,4.812,3.125,7.539,3.125    c2.734,0,5.461-1.031,7.539-3.125h0.008l15.078,15.094c-4.164,4.156-4.164,10.906,0,15.062c2.086,2.094,4.812,3.125,7.539,3.125    c2.734,0,5.461-1.031,7.547-3.109v-0.016l15.078,15.094c-4.138,4.146-4.159,10.834-0.074,15.012l-77.403-77.403    C132.621,285.642,135.535,283.47,137.926,281.689z M158.754,483.499l-14.688-14.688c13.789-29.109,40.843-66.373,41.14-66.779    c3.461-4.75,2.414-11.438-2.344-14.906s-11.429-2.406-14.898,2.344c-1.156,1.594-24.703,34.014-39.82,63.436l-26.976-27    l15.085-15.062c4.164-4.172,4.164-10.936,0-15.092c-4.171-4.156-10.921-4.156-15.085,0l-15.086,15.092L53.934,378.69    c12.429-6.031,30.781-15.75,46.078-27.188c4.719-3.531,5.68-10.203,2.156-14.922c-3.524-4.719-10.211-5.688-14.93-2.156    c-16.883,12.609-38.656,23.312-49.335,28.234l-9.406-9.406c30.343-16.375,60.945-36.781,83.234-52.516l99.538,99.547    C195.535,422.562,175.136,453.155,158.754,483.499z M223.894,382.735l-17.067-17.067c2.076,2.027,4.765,3.052,7.466,3.052    c2.727,0,5.453-1.047,7.539-3.125l8.492,8.484C228.527,376.47,226.355,379.376,223.894,382.735z M244.456,358.032l-90.499-90.484    l3.922-3.922l59.054,6.562l12.438,12.438l12.437,12.438l6.562,59.062L244.456,358.032z M487.548,39.542L251.995,275.095    l-7.539-7.547l-7.539-7.547L472.47,24.456c2.016-2.016,4.688-3.125,7.531-3.125c2.859,0,5.531,1.109,7.547,3.125    s3.125,4.695,3.125,7.547C490.673,34.847,489.563,37.526,487.548,39.542z" fill="#27374D"/>
	</g>
</g>
<g>
</g>
<g>
</g>
<g>
</g>
<g>
</g>
<g>
</g>
<g>
</g>
<g>
</g>
<g>
</g>
<g>
</g>
<g>
</g>
<g>
</g>
<g>
</g>
<g>
</g>
<g>
</g>
<g>
</g>
</svg>
